{
  "_class": "shapePath",
  "booleanOperation": -1,
  "do_objectID": "324D109D-C97A-4F99-ADA7-B03B2D0597D5",
  "edited": true,
  "exportOptions": {
    "_class": "exportOptions",
    "exportFormats": [
    ],
    "includedLayerIds": [
    ],
    "layerOptions": 0,
    "shouldTrim": false
  },
  "frame": {
    "_class": "rect",
    "constrainProportions": false,
    "height": 9.000000014445344,
    "width": 11.05354574126176,
    "x": 1.97341887987698,
    "y": 3
  },
  "isFlippedHorizontal": false,
  "isFlippedVertical": false,
  "isLocked": false,
  "isVisible": true,
  "layerListExpandedType": 0,
  "name": "Path",
  "nameIsFixed": false,
  "path": {
    "_class": "path",
    "isClosed": true,
    "pointRadiusBehaviour": 1,
    "points": [
      {
        "_class": "curvePoint",
        "cornerRadius": 0,
        "curveFrom": "{0.80720583658895095, 0.33772596197844673}",
        "curveMode": 3,
        "curveTo": "{0.85712607413899822, 0.62270074851718482}",
        "hasCurveFrom": true,
        "hasCurveTo": true,
        "point": "{0.8362579631944671, 0.50357300085928713}"
      },
      {
        "_class": "curvePoint",
        "cornerRadius": 0,
        "curveFrom": "{0.72869615171056779, 0.079558573083582176}",
        "curveMode": 3,
        "curveTo": "{0.80316972059888692, 0.31750198245034172}",
        "hasCurveFrom": true,
        "hasCurveTo": true,
        "point": "{0.78181969377492955, 0.24928854446964929}"
      },
      {
        "_class": "curvePoint",
        "cornerRadius": 0,
        "curveFrom": "{0.35930387565363575, 0}",
        "curveMode": 2,
        "curveTo": "{0.65208319686019167, 0}",
        "hasCurveFrom": true,
        "hasCurveTo": true,
        "point": "{0.50274998819551497, 0}"
      },
      {
        "_class": "curvePoint",
        "cornerRadius": 0,
        "curveFrom": "{0.20081221476056924, 0.31927352394387126}",
        "curveMode": 3,
        "curveTo": "{0.28056433602034098, 0.079825312318577715}",
        "hasCurveFrom": true,
        "hasCurveTo": true,
        "point": "{0.22583750800435223, 0.24413744457735323}"
      },
      {
        "_class": "curvePoint",
        "cornerRadius": 0,
        "curveFrom": "{0.14887593083235426, 0.6263235678851371}",
        "curveMode": 3,
        "curveTo": "{0.19407087294653511, 0.35325867446927062}",
        "hasCurveFrom": true,
        "hasCurveTo": true,
        "point": "{0.16749126588395696, 0.51385092727583326}"
      },
      {
        "_class": "curvePoint",
        "cornerRadius": 0,
        "curveFrom": "{0, 1}",
        "curveMode": 4,
        "curveTo": "{0.093633339725593567, 0.78325153366214906}",
        "hasCurveFrom": false,
        "hasCurveTo": true,
        "point": "{0, 1}"
      },
      {
        "_class": "curvePoint",
        "cornerRadius": 0,
        "curveFrom": "{0.91141179777319858, 0.78476566394754377}",
        "curveMode": 4,
        "curveTo": "{1, 0.99999999839496156}",
        "hasCurveFrom": true,
        "hasCurveTo": false,
        "point": "{1, 0.99999999839496156}"
      }
    ]
  },
  "resizingConstraint": 63,
  "resizingType": 0,
  "rotation": 0,
  "shouldBreakMaskChain": false
}