{
  "_class": "shapePath",
  "booleanOperation": 0,
  "do_objectID": "40BA8EB5-64C7-4B43-AE13-423879FCA1D5",
  "edited": true,
  "exportOptions": {
    "_class": "exportOptions",
    "exportFormats": [
    ],
    "includedLayerIds": [
    ],
    "layerOptions": 0,
    "shouldTrim": false
  },
  "frame": {
    "_class": "rect",
    "constrainProportions": false,
    "height": 5.000000000000001,
    "width": 7.999999999999998,
    "x": -1.110223024625157e-16,
    "y": 3.885780586188048e-16
  },
  "isFlippedHorizontal": false,
  "isFlippedVertical": false,
  "isLocked": false,
  "isVisible": true,
  "layerListExpandedType": 0,
  "name": "Path",
  "nameIsFixed": false,
  "path": {
    "_class": "path",
    "isClosed": true,
    "pointRadiusBehaviour": 1,
    "points": [
      {
        "_class": "curvePoint",
        "cornerRadius": 0,
        "curveFrom": "{0.85193227501044888, -0.017101760693811321}",
        "curveMode": 4,
        "curveTo": "{0.80904400097051643, 0.056464733159523384}",
        "hasCurveFrom": true,
        "hasCurveTo": false,
        "point": "{0.80904400097051643, 0.056464733159523384}"
      },
      {
        "_class": "curvePoint",
        "cornerRadius": 0,
        "curveFrom": "{1.0111783576003492, 0.12806091247640441}",
        "curveMode": 2,
        "curveTo": "{0.92209637731580807, -0.017101760693811321}",
        "hasCurveFrom": true,
        "hasCurveTo": true,
        "point": "{0.96645145027468882, 0.055176616356237052}"
      },
      {
        "_class": "curvePoint",
        "cornerRadius": 0,
        "curveFrom": "{0.9664783980329168, 0.31229973337792949}",
        "curveMode": 4,
        "curveTo": "{1.0111783576003492, 0.24687818404954659}",
        "hasCurveFrom": false,
        "hasCurveTo": true,
        "point": "{0.9664783980329168, 0.31229973337792949}"
      },
      {
        "_class": "curvePoint",
        "cornerRadius": 0,
        "curveFrom": "{0.55703095842200756, 0.98063228988524132}",
        "curveMode": 4,
        "curveTo": "{0.57831307029002743, 0.94595223181287436}",
        "hasCurveFrom": true,
        "hasCurveTo": false,
        "point": "{0.57831307029002743, 0.94595223181287436}"
      },
      {
        "_class": "curvePoint",
        "cornerRadius": 0,
        "curveFrom": "{0.46951849884596492, 1}",
        "curveMode": 2,
        "curveTo": "{0.5285060391779004, 1}",
        "hasCurveFrom": true,
        "hasCurveTo": true,
        "point": "{0.49999457930761398, 1}"
      },
      {
        "_class": "curvePoint",
        "cornerRadius": 0,
        "curveFrom": "{0.42162226369218958, 0.94586436702989163}",
        "curveMode": 4,
        "curveTo": "{0.44355518656977799, 0.98160510321954852}",
        "hasCurveFrom": false,
        "hasCurveTo": true,
        "point": "{0.42162226369218958, 0.94586436702989163}"
      },
      {
        "_class": "curvePoint",
        "cornerRadius": 0,
        "curveFrom": "{-0.011179070505069718, 0.24202963271171635}",
        "curveMode": 4,
        "curveTo": "{0.034327596377861494, 0.3124768311367852}",
        "hasCurveFrom": true,
        "hasCurveTo": false,
        "point": "{0.034327596377861494, 0.3124768311367852}"
      },
      {
        "_class": "curvePoint",
        "cornerRadius": 0,
        "curveFrom": "{0.075655515041125734, -0.018223191750564655}",
        "curveMode": 4,
        "curveTo": "{-0.011179070505069718, 0.12324780627824448}",
        "hasCurveFrom": true,
        "hasCurveTo": true,
        "point": "{0.032767241001193589, 0.055343302102770379}"
      },
      {
        "_class": "curvePoint",
        "cornerRadius": 0,
        "curveFrom": "{0.19014389956274222, 0.054005061251711957}",
        "curveMode": 4,
        "curveTo": "{0.14581961734648546, -0.018223191750564655}",
        "hasCurveFrom": false,
        "hasCurveTo": true,
        "point": "{0.19014389956274222, 0.054005061251711957}"
      },
      {
        "_class": "curvePoint",
        "cornerRadius": 0,
        "curveFrom": "{0.50096666923736066, 0.55948004893885672}",
        "curveMode": 1,
        "curveTo": "{0.50096666923736066, 0.55948004893885672}",
        "hasCurveFrom": false,
        "hasCurveTo": false,
        "point": "{0.50096666923736066, 0.55948004893885672}"
      }
    ]
  },
  "resizingConstraint": 63,
  "resizingType": 0,
  "rotation": 0,
  "shouldBreakMaskChain": false
}