{
  "_class": "group",
  "do_objectID": "9DAC20FD-6465-4B38-8EC5-959A3C2ABBA7",
  "exportOptions": {
    "_class": "exportOptions",
    "exportFormats": [
    ],
    "includedLayerIds": [
    ],
    "layerOptions": 0,
    "shouldTrim": false
  },
  "frame": {
    "_class": "rect",
    "constrainProportions": false,
    "height": 625,
    "width": 1448,
    "x": 11,
    "y": 0
  },
  "hasClickThrough": false,
  "isFlippedHorizontal": false,
  "isFlippedVertical": false,
  "isLocked": false,
  "isVisible": true,
  "layerListExpandedType": 2,
  "layers": [
    {
      "class": "shapeGroup",
      "id": "177B3D90-CF07-44AB-8C50-1540E3C43BD5"
    },
    {
      "class": "shapeGroup",
      "id": "C96944D1-5B50-4B2C-88CD-3E83459788F0"
    },
    {
      "class": "shapeGroup",
      "id": "76B61E93-FBD9-489C-B1BB-B4E243FEAE0F"
    }
  ],
  "name": "timeline-unit-weekendday-bg",
  "nameIsFixed": true,
  "resizingConstraint": 63,
  "resizingType": 0,
  "rotation": 0,
  "shouldBreakMaskChain": false,
  "style": {
    "_class": "style",
    "endDecorationType": 0,
    "miterLimit": 10,
    "startDecorationType": 0
  }
}