{
  "_class": "shapePath",
  "booleanOperation": -1,
  "do_objectID": "2030A9FE-5A80-41F8-AFDC-C0D5A674B35C",
  "edited": true,
  "exportOptions": {
    "_class": "exportOptions",
    "exportFormats": [
    ],
    "includedLayerIds": [
    ],
    "layerOptions": 0,
    "shouldTrim": false
  },
  "frame": {
    "_class": "rect",
    "constrainProportions": false,
    "height": 15.94723427256804,
    "width": 11.93936541602265,
    "x": 0,
    "y": 0
  },
  "isFlippedHorizontal": false,
  "isFlippedVertical": false,
  "isLocked": false,
  "isVisible": true,
  "layerListExpandedType": 0,
  "name": "path34-path",
  "nameIsFixed": false,
  "path": {
    "_class": "path",
    "isClosed": false,
    "pointRadiusBehaviour": 1,
    "points": [
      {
        "_class": "curvePoint",
        "cornerRadius": 0,
        "curveFrom": "{0.76440070272354499, 0.87775860488650415}",
        "curveMode": 4,
        "curveTo": "{0.61230243479022739, 0.87775860488650415}",
        "hasCurveFrom": true,
        "hasCurveTo": false,
        "point": "{0.61230243479022739, 0.87775860488650415}"
      },
      {
        "_class": "curvePoint",
        "cornerRadius": 0,
        "curveFrom": "{0.92625665623955389, 0.80117468697327576}",
        "curveMode": 4,
        "curveTo": "{0.86190415976242218, 0.83947060276595542}",
        "hasCurveFrom": false,
        "hasCurveTo": true,
        "point": "{0.92625665623955389, 0.80117468697327576}"
      },
      {
        "_class": "curvePoint",
        "cornerRadius": 0,
        "curveFrom": "{0.89948852896157172, 0.96422126123928809}",
        "curveMode": 4,
        "curveTo": "{1, 0.89765063793879829}",
        "hasCurveFrom": true,
        "hasCurveTo": false,
        "point": "{1, 0.89765063793879829}"
      },
      {
        "_class": "curvePoint",
        "cornerRadius": 0,
        "curveFrom": "{0.25545004779663399, 1}",
        "curveMode": 3,
        "curveTo": "{0.76429589436364975, 1}",
        "hasCurveFrom": true,
        "hasCurveTo": true,
        "point": "{0.62010019626083746, 1}"
      },
      {
        "_class": "curvePoint",
        "cornerRadius": 0,
        "curveFrom": "{0, 0.13843681776678557}",
        "curveMode": 3,
        "curveTo": "{0, 0.83210113362297478}",
        "hasCurveFrom": true,
        "hasCurveTo": true,
        "point": "{0, 0.49337460186913046}"
      },
      {
        "_class": "curvePoint",
        "cornerRadius": 0,
        "curveFrom": "{0.74880518056838952, 0}",
        "curveMode": 3,
        "curveTo": "{0.27558378380483001, 0}",
        "hasCurveFrom": true,
        "hasCurveTo": true,
        "point": "{0.59084811014587968, 0}"
      },
      {
        "_class": "curvePoint",
        "cornerRadius": 0,
        "curveFrom": "{0.97110426293753793, 0.055963651499262974}",
        "curveMode": 4,
        "curveTo": "{0.88335848990922261, 0.027981825731821265}",
        "hasCurveFrom": false,
        "hasCurveTo": true,
        "point": "{0.97110426293753793, 0.055963651499262974}"
      },
      {
        "_class": "curvePoint",
        "cornerRadius": 0,
        "curveFrom": "{0.96750932982600713, 0.43519456788363525}",
        "curveMode": 1,
        "curveTo": "{0.96750932982600713, 0.43519456788363525}",
        "hasCurveFrom": false,
        "hasCurveTo": false,
        "point": "{0.96750932982600713, 0.43519456788363525}"
      },
      {
        "_class": "curvePoint",
        "cornerRadius": 0,
        "curveFrom": "{0.96750932982600713, 0.47993382639654719}",
        "curveMode": 1,
        "curveTo": "{0.96750932982600713, 0.47993382639654719}",
        "hasCurveFrom": false,
        "hasCurveTo": false,
        "point": "{0.96750932982600713, 0.47993382639654719}"
      },
      {
        "_class": "curvePoint",
        "cornerRadius": 0,
        "curveFrom": "{0.96750932982600713, 0.55449134199613892}",
        "curveMode": 1,
        "curveTo": "{0.96750932982600713, 0.55449134199613892}",
        "hasCurveFrom": false,
        "hasCurveTo": false,
        "point": "{0.96750932982600713, 0.55449134199613892}"
      },
      {
        "_class": "curvePoint",
        "cornerRadius": 0,
        "curveFrom": "{0.49950739850358095, 0.55449134199613892}",
        "curveMode": 1,
        "curveTo": "{0.49950739850358095, 0.55449134199613892}",
        "hasCurveFrom": false,
        "hasCurveTo": false,
        "point": "{0.49950739850358095, 0.55449134199613892}"
      },
      {
        "_class": "curvePoint",
        "cornerRadius": 0,
        "curveFrom": "{0.49950739850358095, 0.43519456788363525}",
        "curveMode": 1,
        "curveTo": "{0.49950739850358095, 0.43519456788363525}",
        "hasCurveFrom": false,
        "hasCurveTo": false,
        "point": "{0.49950739850358095, 0.43519456788363525}"
      },
      {
        "_class": "curvePoint",
        "cornerRadius": 0,
        "curveFrom": "{0.79785561090906476, 0.43519456788363525}",
        "curveMode": 1,
        "curveTo": "{0.79785561090906476, 0.43519456788363525}",
        "hasCurveFrom": false,
        "hasCurveTo": false,
        "point": "{0.79785561090906476, 0.43519456788363525}"
      },
      {
        "_class": "curvePoint",
        "cornerRadius": 0,
        "curveFrom": "{0.76245126314195721, 0.13254757339010595}",
        "curveMode": 4,
        "curveTo": "{0.80145055188124215, 0.14727859978495761}",
        "hasCurveFrom": true,
        "hasCurveTo": false,
        "point": "{0.80145055188124215, 0.14727859978495761}"
      },
      {
        "_class": "curvePoint",
        "cornerRadius": 0,
        "curveFrom": "{0.34905462567233558, 0.12076908523042057}",
        "curveMode": 3,
        "curveTo": "{0.69419988985984371, 0.12076908523042057}",
        "hasCurveFrom": true,
        "hasCurveTo": true,
        "point": "{0.60255523295196489, 0.12076908523042057}"
      },
      {
        "_class": "curvePoint",
        "cornerRadius": 0,
        "curveFrom": "{0.17940091382997519, 0.7525725875846685}",
        "curveMode": 2,
        "curveTo": "{0.17940091382997519, 0.24120571249957551}",
        "hasCurveFrom": true,
        "hasCurveTo": true,
        "point": "{0.17940091382997519, 0.49484691236962647}"
      },
      {
        "_class": "curvePoint",
        "cornerRadius": 0,
        "curveFrom": "{0.61230243479022739, 0.87775860488650415}",
        "curveMode": 4,
        "curveTo": "{0.3549029467752931, 0.87775860488650415}",
        "hasCurveFrom": false,
        "hasCurveTo": true,
        "point": "{0.61230243479022739, 0.87775860488650415}"
      }
    ]
  },
  "resizingConstraint": 63,
  "resizingType": 0,
  "rotation": 0,
  "shouldBreakMaskChain": false
}